Generate a data dictionary template from a dataset — dict_from_data • datadict
…
    Value

    A tibble-style data frame representing a data dictionary
template formatted to the OCA data sharing standard

    Examples

# read example dataset
path_data <- system.file("extdata", package = "datadict")
dat <- readxl::read_xlsx(file.path(path_data, "linelist_cleaned.xlsx"))

# generate data dictionary template from dataset
dict_from_data(dat, factor_values = "string")
#> # A tibble: 31 × 7
#>    variable_name     short_label type  choices origin status indirect_identifier
#>    <chr>             <chr>       <chr> <chr>   <chr>  <chr>  <chr>              
#>  1 case_id           NA          Free… NA      origi… shared NA                 
#>  2 generation        NA          Nume… NA      origi… shared NA                 
#>  3 cohort_fu         NA          Logi… NA      origi… shared NA                 
#>  4 date_infection    NA          Date… NA      origi… shared NA                 
#>  5 date_onset        NA          Date… NA      origi… shared NA                 
#>  6 date_hospitalisa… NA          Date… NA      origi… shared NA                 
#>  7 date_outcome      NA          Date… NA      origi… shared NA                 
#>  8 outcome           NA          Code… death,… origi… shared NA                 
#>  9 gender            NA          Code… f, f |… origi… shared NA                 
#> 10 age               NA          Nume… NA      origi… shared NA                 
#> # ℹ 21 more rows
…
